{
  "status":200,
  "message":"Success",
  "success":true,
  "data" : {
    "hospitalName" : "Rumah Sakit SMKDEV",
    "image" : "https://gitlab.com/Daffaal/data-json/-/raw/master/hospital.jpg",
    "about" : "Rumah Sakit SMKDEV adalah rumah sakit umum yang terletak di Sinduadi, Mlati, Kabupaten Sleman, provinsi Daerah Istimewa Yogyakarta, persis di sebelah barat Fakultas Kedokteran Universitas Gadjah Mada dan di sebelah selatan Fakultas Teknik Universitas Gadjah Mada.",
    "email" : "info@smk.dev",
    "emergencyService" : [
      {
        "id" : 1,
        "serviceName" : "Unit Gawat Darurat",
        "shortName" : "(UGD)",
        "openAt" : "Setiap Hari 24 Jam"
      },
      {
        "id" : 2,
        "serviceName" : "Ambulans Siaga",
        "contact" : [
          {
            "wa" : "+62 7000 000",
            "office" : "(021) 7000 00"
          }
          ]
      },
      {
        "id" : 3,
        "serviceName" : "Telepon",
        "noPhone" : "+62 8000 5000"
      }
      ]
  }
}